Chapter 6 분석 | BRIG
…
## # A tibble: 1 × 1
##   `영업 중이면 모두 휴업시작일자가 없는가?`
##   <lgl>                                    
## 1 TRUE

폐업한 점포라면 폐업일자가 있어야함.

만약 폐업점포이지만 폐업일자가 결측치(NA)라면 최종수정시점으로 대체

#폐업 매장의 결측치 확인
df1 %>%
  filter(영업상태구분코드=="03", is.na(폐업연도))

## # A tibble: 58 × 11
##    번호  사업장명            영업상태구분코드 상세영업상태명 인허가연도 폐업연도
##    <chr> <chr>               <chr>            <chr>               <dbl>    <dbl>
##  1 247   Secret 휘트니스클럽 03               폐업                 2011       NA
##  2 2496  에벤에셀 헬스그럽   03               폐업                 2001       NA
##  3 4694  에너지프러스(74)    03               폐업                 1999       NA
##  4 4695  YOUNG &POWER헬스클… 03               폐업                 1999       NA
##  5 4751  신사헬스크럽(39)    03               폐업                 1999       NA
##  6 4803  Trainer Jin Diehar… 03               폐업                 2012       NA
##  7 4909  패트릭헬스짐(87)    03               폐업                 2000       NA
##  8 4911  (주)테크노짐(90)    03               폐업                 2000       NA
##  9 6154  사직체력관          03               폐업                 1989       NA
## 10 6155  올림픽헬스          03               폐업                 1996       NA
## # ℹ 48 more rows
## # ℹ 5 more variables: 휴업시작연도 <dbl>, 인허가취소연도 <dbl>,
## #   최종수정연도 <dbl>, `좌표정보(X)` <chr>, `좌표정보(Y)` <chr>
…
result_df %>% 
  group_by(year) %>%
  summarise(인허가연도, "폐업/휴업/취소"=폐업연도+휴업시작연도+인허가취소연도)

## # A tibble: 69 × 3
##     year 인허가연도 `폐업/휴업/취소`
##    <dbl>      <dbl>            <dbl>
##  1  1955          1                0
##  2  1956          0                0
##  3  1957          0                0
##  4  1958          0                0
##  5  1959          0                0
##  6  1960          0                0
##  7  1961          0                0
##  8  1962          0                0
##  9  1963          0                0
## 10  1964          0                0
## # ℹ 59 more rows
